{
  "Applicant": {
    "_comments": "e2e test user to apply for job created from mcf employer side",
    "nric": "T2100086D",
    "preferredName": "Mr End To End",
    "email": "end@e2e.com",
    "phoneCountryCode": "(+65) Singapore",
    "phoneNumber": "87654321",
    "countryCode": "65",
    "employmentStatus": "Employed",
    "qualifications": [{
      "fieldOfStudy": "Biomedical Science",
      "isHighest": true,
      "nameOfSchool": "Do Not Delete this School",
      "qualificationType": "Doctorate or equivalent",
      "yearAttained": "2008"
    }],
    "workExperiences": [{
      "companyName": "Justice League",
      "employmentType": "Internship/Traineeship",
      "fromDateDisplay": "Mar 2003",
      "industry": "Ocean fishing except fishing in kelongs",
      "currentPosition": true,
      "jobTitle": "Ah Kua Man",
      "occupation": "Underwater Diver",
      "workDescription": "Superhero Aquaman, Ruler of Alantis"
    }],
    "resumes": [{
      "fileName": "Sample.pdf",
      "fileSize": "64.17 KB"
    }],
    "skillsPercentMatched": "30",
    "skills": [
      "Active Directory",
      "High Availability",
      "Cloud Computing",
      "Data Center",
      "Disaster Recovery",
      "Enterprise Architecture"
    ]
  }
}
