// Jest Snapshot v1, https://goo.gl/fbAQLP

exports[`Jobs/JobBar renders correctly 1`] = `
<Component
  job="job cleaned by cleanJob"
>
  <section
    className="bg-white flex items-center pa3 w-100 jobBar"
  >
    <div
      className="jobTitleBox"
    >
      <div
        className="flex items-center"
      >
        <i
          className="iconLock mr2"
        />
        <div
          className="mr2 f6-5 silver"
          data-cy="job-post-id"
        >
          JOB-2018-0015396
        </div>
        <Component
          status="OPEN"
        >
          <div
            className="f8 fw6 lh-solid ba br1 pv1 ph2 b--green green"
            data-cy="job-post-status"
          >
            OPEN
          </div>
        </Component>
      </div>
      <h2
        className="f3-5 ma0 mb1 fw4 primary-dark truncate lh-title"
        data-cy="job-post-title"
      >
        School of Technology for the Arts & Manager (Technical)
      </h2>
      <span
        className="lh-title f5-5 secondary"
      >
        Senior Management
        <span
          className="ph2 f6 black-60"
        >
          ▸
        </span>
      </span>
      <span
        className="lh-title f5-5 black-60"
        data-cy="job-post-vacancy"
      >
        1
         
         Vacancy
      </span>
    </div>
    <div
      className="detailsBox silver ph2"
    >
      <div>
        <span
          className="icon-bw-location black-60 f6 lh-copy"
          data-cy="job-post-address"
        >
          Sandcrawler, 9 WOODLANDS AVENUE 9 #8-77 738964
        </span>
      </div>
      <div>
        <span
          className="icon-bw-employment-type black-60 f6 lh-copy"
          data-cy="job-post-employment-types"
        >
          Full Time
        </span>
        <span
          className="icon-bw-category black-60 f6 pl2 lh-copy"
          data-cy="job-post-categories"
        >
          Education and Training, Public / Civil Service
        </span>
      </div>
    </div>
    <div
      className="detailsBox flex flex-column items-end justify-end"
    >
      <div
        className="f4 lh-copy black-70"
      >
        <span
          data-cy="job-post-monthly-salary"
        >
          S$ 0 – 10000
        </span>
        <span>
          /mth
        </span>
      </div>
      <div
        className="f6 black-50 tr lh-copy"
      >
        <span
          data-cy="job-post-posted-date"
        >
          Posted 
          <time
            dateTime="2018-01-25"
          >
            25 Jan 2018
          </time>
        </span>
        <span
          className="dib ml2"
          data-cy="job-post-expiry-date"
        >
          Closing 
          <time
            dateTime="2020-10-10"
          >
            10 Oct 2020
          </time>
        </span>
      </div>
    </div>
  </section>
</Component>
`;
