// Jest Snapshot v1, https://goo.gl/fbAQLP

exports[`Layouts/Footer should render Footer correctly 1`] = `
<Component>
  <footer
    className="bg-white bt b--black-10 footer"
  >
    <section
      className="flex pa3 w-100 center justify-between items-center"
    >
      <div
        className="w-50 dib v-mid flex items-start"
      >
        <div
          className="pt2"
        >
          <p
            className="fw3 f6 gray pb2 w-100 mv0"
          >
            A collaboration between
          </p>
          <i
            className="dib mv3 ml3 mr2 v-mid wsgLogo"
          />
          <i
            className="dib mv3 ml3 v-mid govtechLogo"
          />
        </div>
        <div
          className="pt2 ml5"
        >
          <p
            className="fw3 f6 gray pb2 mv0 db"
          >
            Powered by
          </p>
          <i
            className="dib mv3 ml3 mr4 v-mid jobskredLogo"
            title="JobsKred"
          />
          <i
            className="dib mv3  v-mid wccLogo"
            title="WCC"
          />
        </div>
      </div>
      <div
        className="w-50 pl4 pr0"
      >
        <div
          className="pb1"
        >
          <a
            className="pr3 blue dib lh-copy"
            href="https://www.mycareersfuture.sg/docs/mycareersfuture_sg_user_faqs.pdf"
            target="_blank"
            title="FAQ"
          >
            FAQ
          </a>
          <Link
            className="pr3 blue dib lh-copy"
            title="Terms of Use"
            to="/terms-of-use"
          >
            <LinkAnchor
              className="pr3 blue dib lh-copy"
              href="/terms-of-use"
              navigate={[Function]}
              title="Terms of Use"
            >
              <a
                className="pr3 blue dib lh-copy"
                href="/terms-of-use"
                onClick={[Function]}
                title="Terms of Use"
              >
                Terms of Use
              </a>
            </LinkAnchor>
          </Link>
          <Link
            className="pr3 blue dib lh-copy"
            title="Survey"
            to="/survey"
          >
            <LinkAnchor
              className="pr3 blue dib lh-copy"
              href="/survey"
              navigate={[Function]}
              title="Survey"
            >
              <a
                className="pr3 blue dib lh-copy"
                href="/survey"
                onClick={[Function]}
                title="Survey"
              >
                Survey
              </a>
            </LinkAnchor>
          </Link>
          <a
            className="pr3 blue dib lh-copy"
            href="https://portal.ssg-wsg.gov.sg/"
            target="_blank"
            title="Feedback"
          >
            Feedback
          </a>
          <a
            className="pr3 blue dib lh-copy"
            href="https://www.tal.sg/tafep/getting-started/fair/employers-pledge"
            target="_blank"
            title="Pledge for Fair Employment"
          >
            Pledge for Fair Employment
          </a>
          <a
            className="pr3 blue dib lh-copy"
            href="https://www.mom.gov.sg/covid-19/second-job-arrangements"
            target="_blank"
            title="Second Job Arrangements"
          >
            Second Job Arrangements
          </a>
        </div>
        <div
          className="tl"
        />
        <div>
          <small
            className="mt1 f6 black-60 db tl"
          >
            <span
              className="dib pr2"
            >
              Copyright © 
              2020
               Workforce Singapore. 
            </span>
            <span
              className="dib"
            >
              All Rights Reserved.
            </span>
          </small>
        </div>
        <small
          className="mt1 f6 black-30 db"
          id="version"
          title="Epic.Major.Minor.Build"
        >
          v1.abc
        </small>
        <a
          className="blue pt3 f6 db underline"
          href="https://www.tech.gov.sg/report_vulnerability"
          target="_blank"
          title="Report Vulnerability"
        >
          Report Vulnerability
        </a>
      </div>
    </section>
  </footer>
</Component>
`;
