// Jest Snapshot v1, https://goo.gl/fbAQLP

exports[`Layouts/TemporarilyUnavailable should render TemporarilyUnavailable correctly 1`] = `
<Component
  link={
    Object {
      "action": [MockFunction],
      "text": "some link",
    }
  }
  message="some message"
>
  <Component
    className="black-30"
  >
    <div
      className="w-100 pv6 lh-copy tc black-30"
    >
      <h1
        className="f3 pre overflow-auto"
        data-cy="error-message"
      >
        some message
      </h1>
      <a
        className="f3 blue"
        data-cy="previous-page"
        href="#"
        onClick={[MockFunction]}
      >
        some link
      </a>
    </div>
  </Component>
</Component>
`;
