// Jest Snapshot v1, https://goo.gl/fbAQLP

exports[`Jobs/JobList should render correctly 1`] = `
<Component
  jobs="jobs cleaned by cleanJob"
  total={1}
>
  <div
    className="center ph3-ns mv3"
    data-cy="job-list"
  >
    <ul
      className="center ph3-ns pv3 mv3"
      data-cy="job-list-items"
    >
      <Component
        job="job cleaned by cleanJob"
        key="afab75dafd1c63f8dc3a8d909be8ef4f"
      >
        <li
          className="flex items-stretch lh-copy mb3 pa1"
          data-cy="job-list-item"
        >
          <div
            className="flex-auto-ie w-60 pa3 bg-white flex items-center"
            data-cy="job-list-item-info"
          >
            <Link
              className="no-underline flex-auto-ie pa2"
              to="/jobs/school-technology-arts-amp-manager-republic-polytechnic-afab75dafd1c63f8dc3a8d909be8ef4f/applications"
            >
              <LinkAnchor
                className="no-underline flex-auto-ie pa2"
                href="/jobs/school-technology-arts-amp-manager-republic-polytechnic-afab75dafd1c63f8dc3a8d909be8ef4f/applications"
                navigate={[Function]}
              >
                <a
                  className="no-underline flex-auto-ie pa2"
                  href="/jobs/school-technology-arts-amp-manager-republic-polytechnic-afab75dafd1c63f8dc3a8d909be8ef4f/applications"
                  onClick={[Function]}
                >
                  <div
                    className="flex"
                  >
                    <i
                      className="iconLock mr2"
                    />
                    <span
                      className="db pt0 black-40 f6-5 lh-solid"
                      data-cy="job-list-item_job-id"
                    >
                      JOB-2018-0015396
                    </span>
                  </div>
                  <h3
                    className="primary ma0 pt1 f4-5 fw6 lh-title pr2 truncate underline-hover"
                    data-cy="job-list-item_job-title"
                    title="School of Technology for the Arts & Manager (Technical)"
                  >
                    School of Technology for the Arts & Manager (Technical)
                  </h3>
                </a>
              </LinkAnchor>
            </Link>
            <div
              className="db lh-solid f6 fw4 bg-white tr lh-copy date"
            >
              <span
                className="black-50 db"
                data-cy="job-list-item_job-post-date"
              >
                Posted on 
                25 Jan 2018
              </span>
              <span
                className="black-50 db"
                data-cy="job-list-item_job-expiry-date"
                title="15 Feb 2018"
              >
                Closed 
              </span>
            </div>
          </div>
          <Link
            className="tc relative mid-gray bl b--light-gray bg-white flex flex-column justify-center no-underline score"
            data-cy="job-list-item-applicant-count"
            to="/jobs/school-technology-arts-amp-manager-republic-polytechnic-afab75dafd1c63f8dc3a8d909be8ef4f/applications"
          >
            <LinkAnchor
              className="tc relative mid-gray bl b--light-gray bg-white flex flex-column justify-center no-underline score"
              data-cy="job-list-item-applicant-count"
              href="/jobs/school-technology-arts-amp-manager-republic-polytechnic-afab75dafd1c63f8dc3a8d909be8ef4f/applications"
              navigate={[Function]}
            >
              <a
                className="tc relative mid-gray bl b--light-gray bg-white flex flex-column justify-center no-underline score"
                data-cy="job-list-item-applicant-count"
                href="/jobs/school-technology-arts-amp-manager-republic-polytechnic-afab75dafd1c63f8dc3a8d909be8ef4f/applications"
                onClick={[Function]}
              >
                <Query
                  query="query cleaned by cleanQuery"
                  variables={
                    Object {
                      "jobId": "afab75dafd1c63f8dc3a8d909be8ef4f",
                    }
                  }
                >
                  <Component
                    loading={false}
                    title="Applicants"
                  >
                    <h4
                      className="f3 fw3 ma0 lh-solid w-100"
                      data-cy="total-count"
                    >
                      -
                    </h4>
                    <span
                      className="f6 fw4 o-60 w-100"
                      data-cy="total-count-title"
                    >
                      Applicants
                    </span>
                  </Component>
                </Query>
              </a>
            </LinkAnchor>
          </Link>
          <Link
            className="tc dark-blue bg-white flex flex-column justify-center ml1 no-underline score"
            data-cy="job-list-item-suggested-talent-count"
            to="/jobs/school-technology-arts-amp-manager-republic-polytechnic-afab75dafd1c63f8dc3a8d909be8ef4f/suggested-talents"
          >
            <LinkAnchor
              className="tc dark-blue bg-white flex flex-column justify-center ml1 no-underline score"
              data-cy="job-list-item-suggested-talent-count"
              href="/jobs/school-technology-arts-amp-manager-republic-polytechnic-afab75dafd1c63f8dc3a8d909be8ef4f/suggested-talents"
              navigate={[Function]}
            >
              <a
                className="tc dark-blue bg-white flex flex-column justify-center ml1 no-underline score"
                data-cy="job-list-item-suggested-talent-count"
                href="/jobs/school-technology-arts-amp-manager-republic-polytechnic-afab75dafd1c63f8dc3a8d909be8ef4f/suggested-talents"
                onClick={[Function]}
              >
                <Connect(Component)
                  formattedJob={
                    Object {
                      "address": "Sandcrawler, 9 WOODLANDS AVENUE 9 #8-77 738964",
                      "categories": "Education and Training, Public / Civil Service",
                      "employerName": "Republic Polytechnic Recruiter",
                      "employmentTypes": "Full Time",
                      "expiryDate": "15 Feb 2018",
                      "hiringEmployerName": "Republic Polytechnic",
                      "id": "JOB-2018-0015396",
                      "jobApplications": "9999",
                      "jobStatus": "OPEN",
                      "linkUrl": "/jobs/school-technology-arts-amp-manager-republic-polytechnic-afab75dafd1c63f8dc3a8d909be8ef4f",
                      "monthlySalary": "S$ 0 – 10000",
                      "numberOfVacancies": "1",
                      "originalPostedDate": "25 Jan 2018",
                      "positionLevels": "Senior Management",
                      "postedDate": "25 Jan 2018",
                      "title": "School of Technology for the Arts & Manager (Technical)",
                      "uen": "T08GB0046G",
                      "uuid": "afab75dafd1c63f8dc3a8d909be8ef4f",
                    }
                  }
                >
                  <Component
                    dispatch={[Function]}
                    formattedJob={
                      Object {
                        "address": "Sandcrawler, 9 WOODLANDS AVENUE 9 #8-77 738964",
                        "categories": "Education and Training, Public / Civil Service",
                        "employerName": "Republic Polytechnic Recruiter",
                        "employmentTypes": "Full Time",
                        "expiryDate": "15 Feb 2018",
                        "hiringEmployerName": "Republic Polytechnic",
                        "id": "JOB-2018-0015396",
                        "jobApplications": "9999",
                        "jobStatus": "OPEN",
                        "linkUrl": "/jobs/school-technology-arts-amp-manager-republic-polytechnic-afab75dafd1c63f8dc3a8d909be8ef4f",
                        "monthlySalary": "S$ 0 – 10000",
                        "numberOfVacancies": "1",
                        "originalPostedDate": "25 Jan 2018",
                        "positionLevels": "Senior Management",
                        "postedDate": "25 Jan 2018",
                        "title": "School of Technology for the Arts & Manager (Technical)",
                        "uen": "T08GB0046G",
                        "uuid": "afab75dafd1c63f8dc3a8d909be8ef4f",
                      }
                    }
                    fromLastLogin="2019-01-01"
                    threshold={1}
                  >
                    <Query
                      query="query cleaned by cleanQuery"
                      skip={false}
                      variables={
                        Object {
                          "fromLastLogin": "2019-01-01",
                          "jobId": "afab75dafd1c63f8dc3a8d909be8ef4f",
                          "threshold": 1,
                        }
                      }
                    >
                      <Component
                        loading={false}
                        title="Suggested Talents"
                      >
                        <h4
                          className="f3 fw3 ma0 lh-solid w-100"
                          data-cy="total-count"
                        >
                          -
                        </h4>
                        <span
                          className="f6 fw4 o-60 w-100"
                          data-cy="total-count-title"
                        >
                          Suggested Talents
                        </span>
                      </Component>
                    </Query>
                  </Component>
                </Connect(Component)>
              </a>
            </LinkAnchor>
          </Link>
        </li>
      </Component>
    </ul>
  </div>
</Component>
`;

exports[`Jobs/JobList should render correctly with search result message 1`] = `
<Component
  hasSearchResultMessage={true}
  jobs="jobs cleaned by cleanJob"
  total={1}
>
  <div
    className="center ph3-ns mv3"
    data-cy="job-list"
  >
    <h1
      className="f4 lh-copy black-50 tc pa3 pt5"
      data-cy="search-result"
    >
      1 job found
    </h1>
    <ul
      className="center ph3-ns pv3 mv3"
      data-cy="job-list-items"
    >
      <Component
        job="job cleaned by cleanJob"
        key="afab75dafd1c63f8dc3a8d909be8ef4f"
      >
        <li
          className="flex items-stretch lh-copy mb3 pa1"
          data-cy="job-list-item"
        >
          <div
            className="flex-auto-ie w-60 pa3 bg-white flex items-center"
            data-cy="job-list-item-info"
          >
            <Link
              className="no-underline flex-auto-ie pa2"
              to="/jobs/school-technology-arts-amp-manager-republic-polytechnic-afab75dafd1c63f8dc3a8d909be8ef4f/applications"
            >
              <LinkAnchor
                className="no-underline flex-auto-ie pa2"
                href="/jobs/school-technology-arts-amp-manager-republic-polytechnic-afab75dafd1c63f8dc3a8d909be8ef4f/applications"
                navigate={[Function]}
              >
                <a
                  className="no-underline flex-auto-ie pa2"
                  href="/jobs/school-technology-arts-amp-manager-republic-polytechnic-afab75dafd1c63f8dc3a8d909be8ef4f/applications"
                  onClick={[Function]}
                >
                  <div
                    className="flex"
                  >
                    <i
                      className="iconLock mr2"
                    />
                    <span
                      className="db pt0 black-40 f6-5 lh-solid"
                      data-cy="job-list-item_job-id"
                    >
                      JOB-2018-0015396
                    </span>
                  </div>
                  <h3
                    className="primary ma0 pt1 f4-5 fw6 lh-title pr2 truncate underline-hover"
                    data-cy="job-list-item_job-title"
                    title="School of Technology for the Arts & Manager (Technical)"
                  >
                    School of Technology for the Arts & Manager (Technical)
                  </h3>
                </a>
              </LinkAnchor>
            </Link>
            <div
              className="db lh-solid f6 fw4 bg-white tr lh-copy date"
            >
              <span
                className="black-50 db"
                data-cy="job-list-item_job-post-date"
              >
                Posted on 
                25 Jan 2018
              </span>
              <span
                className="black-50 db"
                data-cy="job-list-item_job-expiry-date"
                title="15 Feb 2018"
              >
                Closed 
              </span>
            </div>
          </div>
          <Link
            className="tc relative mid-gray bl b--light-gray bg-white flex flex-column justify-center no-underline score"
            data-cy="job-list-item-applicant-count"
            to="/jobs/school-technology-arts-amp-manager-republic-polytechnic-afab75dafd1c63f8dc3a8d909be8ef4f/applications"
          >
            <LinkAnchor
              className="tc relative mid-gray bl b--light-gray bg-white flex flex-column justify-center no-underline score"
              data-cy="job-list-item-applicant-count"
              href="/jobs/school-technology-arts-amp-manager-republic-polytechnic-afab75dafd1c63f8dc3a8d909be8ef4f/applications"
              navigate={[Function]}
            >
              <a
                className="tc relative mid-gray bl b--light-gray bg-white flex flex-column justify-center no-underline score"
                data-cy="job-list-item-applicant-count"
                href="/jobs/school-technology-arts-amp-manager-republic-polytechnic-afab75dafd1c63f8dc3a8d909be8ef4f/applications"
                onClick={[Function]}
              >
                <Query
                  query="query cleaned by cleanQuery"
                  variables={
                    Object {
                      "jobId": "afab75dafd1c63f8dc3a8d909be8ef4f",
                    }
                  }
                >
                  <Component
                    loading={false}
                    title="Applicants"
                  >
                    <h4
                      className="f3 fw3 ma0 lh-solid w-100"
                      data-cy="total-count"
                    >
                      -
                    </h4>
                    <span
                      className="f6 fw4 o-60 w-100"
                      data-cy="total-count-title"
                    >
                      Applicants
                    </span>
                  </Component>
                </Query>
              </a>
            </LinkAnchor>
          </Link>
          <Link
            className="tc dark-blue bg-white flex flex-column justify-center ml1 no-underline score"
            data-cy="job-list-item-suggested-talent-count"
            to="/jobs/school-technology-arts-amp-manager-republic-polytechnic-afab75dafd1c63f8dc3a8d909be8ef4f/suggested-talents"
          >
            <LinkAnchor
              className="tc dark-blue bg-white flex flex-column justify-center ml1 no-underline score"
              data-cy="job-list-item-suggested-talent-count"
              href="/jobs/school-technology-arts-amp-manager-republic-polytechnic-afab75dafd1c63f8dc3a8d909be8ef4f/suggested-talents"
              navigate={[Function]}
            >
              <a
                className="tc dark-blue bg-white flex flex-column justify-center ml1 no-underline score"
                data-cy="job-list-item-suggested-talent-count"
                href="/jobs/school-technology-arts-amp-manager-republic-polytechnic-afab75dafd1c63f8dc3a8d909be8ef4f/suggested-talents"
                onClick={[Function]}
              >
                <Connect(Component)
                  formattedJob={
                    Object {
                      "address": "Sandcrawler, 9 WOODLANDS AVENUE 9 #8-77 738964",
                      "categories": "Education and Training, Public / Civil Service",
                      "employerName": "Republic Polytechnic Recruiter",
                      "employmentTypes": "Full Time",
                      "expiryDate": "15 Feb 2018",
                      "hiringEmployerName": "Republic Polytechnic",
                      "id": "JOB-2018-0015396",
                      "jobApplications": "9999",
                      "jobStatus": "OPEN",
                      "linkUrl": "/jobs/school-technology-arts-amp-manager-republic-polytechnic-afab75dafd1c63f8dc3a8d909be8ef4f",
                      "monthlySalary": "S$ 0 – 10000",
                      "numberOfVacancies": "1",
                      "originalPostedDate": "25 Jan 2018",
                      "positionLevels": "Senior Management",
                      "postedDate": "25 Jan 2018",
                      "title": "School of Technology for the Arts & Manager (Technical)",
                      "uen": "T08GB0046G",
                      "uuid": "afab75dafd1c63f8dc3a8d909be8ef4f",
                    }
                  }
                >
                  <Component
                    dispatch={[Function]}
                    formattedJob={
                      Object {
                        "address": "Sandcrawler, 9 WOODLANDS AVENUE 9 #8-77 738964",
                        "categories": "Education and Training, Public / Civil Service",
                        "employerName": "Republic Polytechnic Recruiter",
                        "employmentTypes": "Full Time",
                        "expiryDate": "15 Feb 2018",
                        "hiringEmployerName": "Republic Polytechnic",
                        "id": "JOB-2018-0015396",
                        "jobApplications": "9999",
                        "jobStatus": "OPEN",
                        "linkUrl": "/jobs/school-technology-arts-amp-manager-republic-polytechnic-afab75dafd1c63f8dc3a8d909be8ef4f",
                        "monthlySalary": "S$ 0 – 10000",
                        "numberOfVacancies": "1",
                        "originalPostedDate": "25 Jan 2018",
                        "positionLevels": "Senior Management",
                        "postedDate": "25 Jan 2018",
                        "title": "School of Technology for the Arts & Manager (Technical)",
                        "uen": "T08GB0046G",
                        "uuid": "afab75dafd1c63f8dc3a8d909be8ef4f",
                      }
                    }
                    fromLastLogin="2019-01-01"
                    threshold={1}
                  >
                    <Query
                      query="query cleaned by cleanQuery"
                      skip={false}
                      variables={
                        Object {
                          "fromLastLogin": "2019-01-01",
                          "jobId": "afab75dafd1c63f8dc3a8d909be8ef4f",
                          "threshold": 1,
                        }
                      }
                    >
                      <Component
                        loading={false}
                        title="Suggested Talents"
                      >
                        <h4
                          className="f3 fw3 ma0 lh-solid w-100"
                          data-cy="total-count"
                        >
                          -
                        </h4>
                        <span
                          className="f6 fw4 o-60 w-100"
                          data-cy="total-count-title"
                        >
                          Suggested Talents
                        </span>
                      </Component>
                    </Query>
                  </Component>
                </Connect(Component)>
              </a>
            </LinkAnchor>
          </Link>
        </li>
      </Component>
    </ul>
  </div>
</Component>
`;
