// Jest Snapshot v1, https://goo.gl/fbAQLP

exports[`CandidateInfo/CandidateInfo should reduce the opacity and remove point from download button when there is no resume 1`] = `
<a
  className="no-underline dib f3 mt3 white pa3 o-20 cursor-not-allowed button generic-btn"
  data-cy="applicant-resume-download-button"
  onClick={[Function]}
>
  <div
    className="flex items-center"
  >
    <i
      className="w-30 db relative iconDownload"
    />
    <span
      className="f5 fw6 db"
    >
      Get Resume
    </span>
  </div>
</a>
`;

exports[`CandidateInfo/CandidateInfo should render candidate info tab contents for empty state 1`] = `
<section
  className="pa4"
  data-cy="overview-tab"
>
  <Component
    educationList={Array []}
    onViewSkills={[Function]}
    skills={Array []}
    workExperiences={Array []}
  >
    <div
      className="f5 black-50 lh-copy tc"
      data-cy="overview-no-info"
    >
      This candidate has not added any information. 
      <br />
      You may want to view the resume instead.
       
    </div>
  </Component>
</section>
`;

exports[`CandidateInfo/CandidateInfo should render candidate info tab contents for empty state 2`] = `
<section
  className="pa4"
  data-cy="skills-tab"
>
  <Component
    skills={Array []}
  >
    <div
      className="f5 black-50 lh-copy tc"
    >
      This candidate has not added any skills. 
      <br />
      You may want to view the resume instead.
    </div>
  </Component>
</section>
`;

exports[`CandidateInfo/CandidateInfo should render candidate info tab contents for empty state 3`] = `
<section
  className="pa4"
  data-cy="work-experiences-tab"
>
  <Component
    workExperiences={Array []}
  >
    <div
      className="f5 black-50 lh-copy tc"
    >
      This candidate has not added any work experience. 
      <br />
       You may want to view the resume instead.
    </div>
  </Component>
</section>
`;

exports[`CandidateInfo/CandidateInfo should render candidate info tab contents for empty state 4`] = `
<section
  className="pa4"
  data-cy="education-history-tab"
>
  <Component
    educationList={Array []}
  >
    <div
      className="f5 black-50 lh-copy tc"
    >
      This candidate has not added any education history. 
      <br />
      You may want to view the resume instead.
    </div>
  </Component>
</section>
`;

exports[`CandidateInfo/CandidateInfo should render candidate info with tab contents 1`] = `
<Provider
  store={
    Object {
      "clearActions": [Function],
      "dispatch": [Function],
      "getActions": [Function],
      "getState": [Function],
      "replaceReducer": [Function],
      "subscribe": [Function],
    }
  }
>
  <CandidateInfo
    candidate="candidate cleaned by cleanCandidate"
    candidateTabClicked={[MockFunction]}
    candidateType="Applicant"
    formattedDate="Applied on 10 Jan 2018"
    isBookmarked={false}
    onCandidateBookmarkClick={[MockFunction]}
    scores={
      Object {
        "jobkred": 2,
        "wcc": 5,
      }
    }
  >
    <div
      className="flex flex-column bg-white w-100"
    >
      <Component
        candidate="candidate cleaned by cleanCandidate"
        candidateType="Applicant"
        formattedDate="Applied on 10 Jan 2018"
        isBookmarked={false}
        onCandidateBookmarkClick={[MockFunction]}
        position="Some Job, Some Company"
      >
        <section
          className="pa4 flex-shrink-0"
          data-cy="candidate-right-panel-1"
        >
          <div
            className="flex justify-between"
          >
            <div
              data-cy="candidate-right-panel-1-applicant-details"
            >
              <h1
                className="f3 fw6 mt0 mb1 ws-normal primary"
                data-cy="candidate-right-panel-1-applicant-name"
              >
                Tan Ah Kow
              </h1>
              <h2
                className="f5 fw4 ma0 mb2 black-70 lh-title"
                data-cy="candidate-right-panel-1-position"
              >
                Some Job, Some Company
              </h2>
              <div
                className="flex mt2 flex-wrap items-center"
              >
                <Component
                  label="Applicant"
                >
                  <div
                    className="f8 bg-green br1 white fw6 tc mr2 lh-solid pv1 ph2 dib ttu tracked"
                    data-cy="Applicant-label"
                    title="Applicant"
                  >
                    Applicant
                  </div>
                </Component>
                <span
                  className="f6 black-40 lh-title pv1"
                  data-cy="candidate-right-panel-1-applied-date"
                >
                  Applied on 10 Jan 2018
                </span>
              </div>
            </div>
            <div
              className="pl2 candidateInfoPanelRight"
            >
              <Component
                name="bookmarkTab"
                render={[Function]}
              />
            </div>
          </div>
          <div
            className="flex items-center mt3 w-100 justify-between"
          >
            <div
              className="flex-column"
            >
              <a
                className="blue no-underline underline-hover ws-normal pr3 email"
                data-cy="candidate-right-panel-1-email"
                href="mailto: email@example.com"
              >
                email@example.com
              </a>
              <a
                className="blue no-underline underline-hover lh-copy ma0 mt1 mobileNumber"
                data-cy="candidate-right-panel-1-mobile"
                href="tel: +65 9991 2345"
              >
                +65 9991 2345
              </a>
              <a
                className="no-underline dib f3 mt3 white pa3  button generic-btn"
                data-cy="applicant-resume-download-button"
                onClick={[Function]}
              >
                <div
                  className="flex items-center"
                >
                  <i
                    className="w-30 db relative iconDownload"
                  />
                  <span
                    className="f5 fw6 db"
                  >
                    Get Resume
                  </span>
                </div>
              </a>
            </div>
            <div
              className="topMatchLabel"
            />
          </div>
        </section>
      </Component>
      <section
        className="infoContainer bg-white flex-shrink-0"
      >
        <Tabs
          onTabSelect={[Function]}
          selectedTab={0}
          use={0}
        >
          <nav
            className="flex justify-around items-stretch db bb b--light-gray pt1"
          >
            <div
              className="f5-5 fw6 lh-solid dib pv3 ph2 ph2-m ph3-l fw4 cursor-default tc bb bw1 b--black-50 z-1 black-70 flex items-center "
              id="tab-0"
              key="0"
              onClick={[Function]}
              title="Overview"
            >
              <span>
                Overview
                 
              </span>
            </div>
            <div
              className="f5-5 fw6 lh-solid dib pv3 ph2 ph2-m ph3-l fw4 cursor-default tc bb blue pointer dim flex items-center b--transparent"
              id="tab-2"
              key="2"
              onClick={[Function]}
              title="Skills"
            >
              <span>
                Skills
                 
              </span>
            </div>
            <div
              className="f5-5 fw6 lh-solid dib pv3 ph2 ph2-m ph3-l fw4 cursor-default tc bb blue pointer dim flex items-center b--transparent"
              id="tab-3"
              key="3"
              onClick={[Function]}
              title="Work Experience"
            >
              <span>
                Work Experience
                 
              </span>
            </div>
            <div
              className="f5-5 fw6 lh-solid dib pv3 ph2 ph2-m ph3-l fw4 cursor-default tc bb blue pointer dim flex items-center b--transparent"
              id="tab-1"
              key="1"
              onClick={[Function]}
              title="Education History"
            >
              <span>
                Education History
                 
              </span>
            </div>
          </nav>
          <Tab
            tabId={0}
            title="Overview"
          >
            <section
              className="pa4"
              data-cy="overview-tab"
            >
              <Component
                educationList="educationList cleaned by cleanCandidate"
                onViewSkills={[Function]}
                skills="skills cleaned by cleanCandidate"
                workExperiences="workExperiences cleaned by cleanCandidate"
              >
                <div>
                  <section
                    className="pb5"
                  >
                    <h4
                      className="f5-5 fw7 ma0 mb3 secondary"
                      data-cy="overview-skills"
                    >
                      Skills
                    </h4>
                    <Component
                      limit={10}
                      skills="skills cleaned by cleanCandidate"
                    >
                      <ul
                        className="flex list pl0 ma0 flex-wrap"
                      >
                        <li
                          className="flex f5-5 br-pill bg-primary white mr2 pv1 pl2 pr3 mb1"
                          data-cy="skill-icon"
                          key="1"
                        >
                          <i
                            className="skillIcon"
                          />
                          <span>
                            some skill
                          </span>
                        </li>
                      </ul>
                    </Component>
                  </section>
                  <section
                    className="pb5"
                  >
                    <h4
                      className="f5-5 fw7 ma0 mb3 secondary"
                      data-cy="overview-work-experience"
                    >
                      Work Experience
                    </h4>
                    <Component
                      limit={3}
                      workExperiences="workExperiences cleaned by cleanCandidate"
                    >
                      <div>
                        <ul
                          className="list pl0 ma0"
                        >
                          <li
                            data-cy="work-experience-field"
                            key="0"
                          >
                            <Component
                              description="description"
                              location="Some Company"
                              time="2017 - 2018"
                              title="Some Job"
                            >
                              <div
                                className="mb4 lh-copy f5"
                              >
                                <div
                                  className="black-40 f6"
                                  data-cy="experience-time"
                                >
                                  2017 - 2018
                                </div>
                                <div>
                                  <div
                                    className="fw6 black-60 f4-5 mr3 dib"
                                    data-cy="experience-title"
                                  >
                                    Some Job
                                     
                                      
                                  </div>
                                </div>
                                <div
                                  className="black-50 f5-5"
                                  data-cy="experience-location"
                                >
                                  Some Company
                                </div>
                                <p
                                  className="ma0 mt2 black-60"
                                  data-cy="experience-description"
                                >
                                  description
                                </p>
                              </div>
                            </Component>
                          </li>
                        </ul>
                      </div>
                    </Component>
                  </section>
                  <section
                    className="pb5"
                  >
                    <h4
                      className="f5-5 fw7 ma0 mb3 secondary"
                      data-cy="overview-education-history"
                    >
                      Education History
                    </h4>
                    <Component
                      educationList="educationList cleaned by cleanCandidate"
                      limit={3}
                    >
                      <div>
                        <ul
                          className="list pl0 ma0"
                        >
                          <li
                            data-cy="education-history-field"
                            key="0"
                          >
                            <Component
                              description="Optional name or description"
                              isVerified={false}
                              location="School Name"
                              time="2014"
                              title="Bachelor's Degree or equivalent, Accommodation Services"
                            >
                              <div
                                className="mb4 lh-copy f5"
                              >
                                <div
                                  className="black-40 f6"
                                  data-cy="experience-time"
                                >
                                  2014
                                </div>
                                <div>
                                  <div
                                    className="fw6 black-60 f4-5 mr3 dib"
                                    data-cy="experience-title"
                                  >
                                    Bachelor's Degree or equivalent, Accommodation Services
                                     
                                      
                                  </div>
                                </div>
                                <div
                                  className="black-50 f5-5"
                                  data-cy="experience-location"
                                >
                                  School Name
                                </div>
                                <p
                                  className="ma0 mt2 black-60"
                                  data-cy="experience-description"
                                >
                                  Optional name or description
                                </p>
                              </div>
                            </Component>
                          </li>
                        </ul>
                      </div>
                    </Component>
                  </section>
                </div>
              </Component>
            </section>
          </Tab>
        </Tabs>
      </section>
    </div>
  </CandidateInfo>
</Provider>
`;

exports[`CandidateInfo/CandidateInfo should render candidate info with tab contents 2`] = `
<section
  className="pa4"
  data-cy="skills-tab"
>
  <Component
    skills={
      Array [
        Object {
          "id": 1,
          "skill": "some skill",
        },
      ]
    }
  >
    <ul
      className="flex list pl0 ma0 flex-wrap"
    >
      <li
        className="flex f5-5 br-pill bg-primary white mr2 pv1 pl2 pr3 mb1"
        data-cy="skill-icon"
        key="1"
      >
        <i
          className="skillIcon"
        />
        <span>
          some skill
        </span>
      </li>
    </ul>
  </Component>
</section>
`;

exports[`CandidateInfo/CandidateInfo should render candidate info with tab contents 3`] = `
<section
  className="pa4"
  data-cy="work-experiences-tab"
>
  <Component
    workExperiences="workExperiences cleaned by cleanCandidate"
  >
    <div>
      <ul
        className="list pl0 ma0"
      >
        <li
          data-cy="work-experience-field"
          key="0"
        >
          <Component
            description="description"
            location="Some Company"
            time="2017 - 2018"
            title="Some Job"
          >
            <div
              className="mb4 lh-copy f5"
            >
              <div
                className="black-40 f6"
                data-cy="experience-time"
              >
                2017 - 2018
              </div>
              <div>
                <div
                  className="fw6 black-60 f4-5 mr3 dib"
                  data-cy="experience-title"
                >
                  Some Job
                   
                    
                </div>
              </div>
              <div
                className="black-50 f5-5"
                data-cy="experience-location"
              >
                Some Company
              </div>
              <p
                className="ma0 mt2 black-60"
                data-cy="experience-description"
              >
                description
              </p>
            </div>
          </Component>
        </li>
      </ul>
    </div>
  </Component>
</section>
`;

exports[`CandidateInfo/CandidateInfo should render candidate info with tab contents 4`] = `
<section
  className="pa4"
  data-cy="education-history-tab"
>
  <Component
    educationList="educationList cleaned by cleanCandidate"
  >
    <div>
      <ul
        className="list pl0 ma0"
      >
        <li
          data-cy="education-history-field"
          key="0"
        >
          <Component
            description="Optional name or description"
            isVerified={false}
            location="School Name"
            time="2014"
            title="Bachelor's Degree or equivalent, Accommodation Services"
          >
            <div
              className="mb4 lh-copy f5"
            >
              <div
                className="black-40 f6"
                data-cy="experience-time"
              >
                2014
              </div>
              <div>
                <div
                  className="fw6 black-60 f4-5 mr3 dib"
                  data-cy="experience-title"
                >
                  Bachelor's Degree or equivalent, Accommodation Services
                   
                    
                </div>
              </div>
              <div
                className="black-50 f5-5"
                data-cy="experience-location"
              >
                School Name
              </div>
              <p
                className="ma0 mt2 black-60"
                data-cy="experience-description"
              >
                Optional name or description
              </p>
            </div>
          </Component>
        </li>
      </ul>
    </div>
  </Component>
</section>
`;

exports[`CandidateInfo/CandidateInfo should render skills tab when there are more than 10 skills and viewSkillsButton is clicked 1`] = `
<section
  className="pa4"
  data-cy="skills-tab"
>
  <Component
    skills="skills cleaned by cleanCandidate"
  >
    <ul
      className="flex list pl0 ma0 flex-wrap"
    >
      <li
        className="flex f5-5 br-pill bg-primary white mr2 pv1 pl2 pr3 mb1"
        data-cy="skill-icon"
        key="0"
      >
        <i
          className="skillIcon"
        />
        <span>
          0
        </span>
      </li>
      <li
        className="flex f5-5 br-pill bg-primary white mr2 pv1 pl2 pr3 mb1"
        data-cy="skill-icon"
        key="1"
      >
        <i
          className="skillIcon"
        />
        <span>
          1
        </span>
      </li>
      <li
        className="flex f5-5 br-pill bg-primary white mr2 pv1 pl2 pr3 mb1"
        data-cy="skill-icon"
        key="2"
      >
        <i
          className="skillIcon"
        />
        <span>
          2
        </span>
      </li>
      <li
        className="flex f5-5 br-pill bg-primary white mr2 pv1 pl2 pr3 mb1"
        data-cy="skill-icon"
        key="3"
      >
        <i
          className="skillIcon"
        />
        <span>
          3
        </span>
      </li>
      <li
        className="flex f5-5 br-pill bg-primary white mr2 pv1 pl2 pr3 mb1"
        data-cy="skill-icon"
        key="4"
      >
        <i
          className="skillIcon"
        />
        <span>
          4
        </span>
      </li>
      <li
        className="flex f5-5 br-pill bg-primary white mr2 pv1 pl2 pr3 mb1"
        data-cy="skill-icon"
        key="5"
      >
        <i
          className="skillIcon"
        />
        <span>
          5
        </span>
      </li>
      <li
        className="flex f5-5 br-pill bg-primary white mr2 pv1 pl2 pr3 mb1"
        data-cy="skill-icon"
        key="6"
      >
        <i
          className="skillIcon"
        />
        <span>
          6
        </span>
      </li>
      <li
        className="flex f5-5 br-pill bg-primary white mr2 pv1 pl2 pr3 mb1"
        data-cy="skill-icon"
        key="7"
      >
        <i
          className="skillIcon"
        />
        <span>
          7
        </span>
      </li>
      <li
        className="flex f5-5 br-pill bg-primary white mr2 pv1 pl2 pr3 mb1"
        data-cy="skill-icon"
        key="8"
      >
        <i
          className="skillIcon"
        />
        <span>
          8
        </span>
      </li>
      <li
        className="flex f5-5 br-pill bg-primary white mr2 pv1 pl2 pr3 mb1"
        data-cy="skill-icon"
        key="9"
      >
        <i
          className="skillIcon"
        />
        <span>
          9
        </span>
      </li>
      <li
        className="flex f5-5 br-pill bg-primary white mr2 pv1 pl2 pr3 mb1"
        data-cy="skill-icon"
        key="10"
      >
        <i
          className="skillIcon"
        />
        <span>
          10
        </span>
      </li>
    </ul>
  </Component>
</section>
`;
