// Jest Snapshot v1, https://goo.gl/fbAQLP

exports[`TextEditorButton should render with label as B and without active className 1`] = `
<Component
  label="B"
  onClick={[Function]}
>
  <button
    className="mh2  button "
    onClick={[Function]}
    onMouseDown={[Function]}
  >
    B
  </button>
</Component>
`;

exports[`TextEditorButton should render with label as I and with active className 1`] = `
<Component
  active={true}
  label="I"
  onClick={[Function]}
>
  <button
    className="mh2  button active"
    onClick={[Function]}
    onMouseDown={[Function]}
  >
    I
  </button>
</Component>
`;

exports[`TextEditorButton should render with label as U and with extra className 1`] = `
<Component
  className="custom-classname"
  label="U"
  onClick={[Function]}
>
  <button
    className="mh2 custom-classname button "
    onClick={[Function]}
    onMouseDown={[Function]}
  >
    U
  </button>
</Component>
`;
