// Jest Snapshot v1, https://goo.gl/fbAQLP

exports[`CompanyDetails CompanyDetails with companyProfile feature toggle should render CompanyDetails correctly 1`] = `
<Provider
  store={
    Object {
      "clearActions": [Function],
      "dispatch": [Function],
      "getActions": [Function],
      "getState": [Function],
      "replaceReducer": [Function],
      "subscribe": [Function],
    }
  }
>
  <MemoryRouter
    keyLength={0}
  >
    <Router
      history={
        Object {
          "action": "POP",
          "block": [Function],
          "canGo": [Function],
          "createHref": [Function],
          "entries": Array [
            Object {
              "hash": "",
              "pathname": "/",
              "search": "",
              "state": undefined,
            },
          ],
          "go": [Function],
          "goBack": [Function],
          "goForward": [Function],
          "index": 0,
          "length": 1,
          "listen": [Function],
          "location": Object {
            "hash": "",
            "pathname": "/",
            "search": "",
            "state": undefined,
          },
          "push": [Function],
          "replace": [Function],
        }
      }
    >
      <Component
        companyLogo="dbs-logo.png"
        companyName="DBS Bank Ltd"
        fetchCompanyInfo={
          [MockFunction] {
            "calls": Array [
              Array [],
            ],
            "results": Array [
              Object {
                "type": "return",
                "value": undefined,
              },
            ],
          }
        }
      >
        <div
          className="tc pv4"
          data-cy="company-details"
          title="DBS Bank Ltd"
        >
          <img
            alt="DBS Bank Ltd"
            className="logo ba b--moon-gray"
            data-cy="company-logo"
            onError={[Function]}
            src="dbs-logo.png"
          />
          <div
            className="mt3 black-70 f6 fw7 lh-title companyName"
            data-cy="company-name"
          >
            DBS Bank Ltd
          </div>
          <Component
            name="companyProfile"
            render={[Function]}
          >
            <Link
              className="blue dib f6 mt2"
              data-cy="to-company-profile"
              title="Edit company profile"
              to="/company-profile"
            >
              <LinkAnchor
                className="blue dib f6 mt2"
                data-cy="to-company-profile"
                href="/company-profile"
                navigate={[Function]}
                title="Edit company profile"
              >
                <a
                  className="blue dib f6 mt2"
                  data-cy="to-company-profile"
                  href="/company-profile"
                  onClick={[Function]}
                  title="Edit company profile"
                >
                  Edit company profile
                </a>
              </LinkAnchor>
            </Link>
          </Component>
        </div>
      </Component>
    </Router>
  </MemoryRouter>
</Provider>
`;

exports[`CompanyDetails CompanyDetails without companyProfile feature toggle should render CompanyDetails correctly 1`] = `
<Provider
  store={
    Object {
      "clearActions": [Function],
      "dispatch": [Function],
      "getActions": [Function],
      "getState": [Function],
      "replaceReducer": [Function],
      "subscribe": [Function],
    }
  }
>
  <MemoryRouter
    keyLength={0}
  >
    <Router
      history={
        Object {
          "action": "POP",
          "block": [Function],
          "canGo": [Function],
          "createHref": [Function],
          "entries": Array [
            Object {
              "hash": "",
              "pathname": "/",
              "search": "",
              "state": undefined,
            },
          ],
          "go": [Function],
          "goBack": [Function],
          "goForward": [Function],
          "index": 0,
          "length": 1,
          "listen": [Function],
          "location": Object {
            "hash": "",
            "pathname": "/",
            "search": "",
            "state": undefined,
          },
          "push": [Function],
          "replace": [Function],
        }
      }
    >
      <Component
        companyLogo="dbs-logo.png"
        companyName="DBS Bank Ltd"
        fetchCompanyInfo={
          [MockFunction] {
            "calls": Array [
              Array [],
            ],
            "results": Array [
              Object {
                "type": "return",
                "value": undefined,
              },
            ],
          }
        }
      >
        <div
          className="tc pv4"
          data-cy="company-details"
          title="DBS Bank Ltd"
        >
          <img
            alt="DBS Bank Ltd"
            className="logo ba b--moon-gray"
            data-cy="company-logo"
            onError={[Function]}
            src="dbs-logo.png"
          />
          <div
            className="mt3 black-70 f6 fw7 lh-title companyName"
            data-cy="company-name"
          >
            DBS Bank Ltd
          </div>
          <Component
            name="companyProfile"
            render={[Function]}
          />
        </div>
      </Component>
    </Router>
  </MemoryRouter>
</Provider>
`;
